^D:\PROGRAMMING\C++\ENGINE\DEBUG\ENGINE.LIB|D:\PROGRAMMING\C++\ENGINE\TEST\DEBUG\CAMERASTATE.OBJ|D:\PROGRAMMING\C++\ENGINE\TEST\DEBUG\FONTSTATE.OBJ|D:\PROGRAMMING\C++\ENGINE\TEST\DEBUG\MAIN.OBJ|D:\PROGRAMMING\C++\ENGINE\TEST\DEBUG\MAINSTATE.OBJ|D:\PROGRAMMING\C++\ENGINE\TEST\DEBUG\MESHSTATE.OBJ|D:\PROGRAMMING\C++\ENGINE\TEST\DEBUG\RESOURCE.RES|D:\PROGRAMMING\C++\ENGINE\TEST\DEBUG\SCENESTATE.OBJ
C:\WINDOWS\GLOBALIZATION\SORTING\SORTDEFAULT.NLS
D:\PROGRAMM FILES\MICROSOFT DIRECTX 9 SDK (JUNE 2010)\LIB\X86\D3DX9D.LIB
D:\PROGRAMM FILES\MICROSOFT DIRECTX 9 SDK (JUNE 2010)\LIB\X86\D3D9.LIB
D:\PROGRAMM FILES\MICROSOFT DIRECTX 9 SDK (JUNE 2010)\LIB\X86\DINPUT8.LIB
D:\PROGRAMM FILES\MICROSOFT DIRECTX 9 SDK (JUNE 2010)\LIB\X86\DXGUID.LIB
C:\PROGRAM FILES (X86)\WINDOWS KITS\8.1\LIB\WINV6.3\UM\X86\WINMM.LIB
C:\PROGRAM FILES (X86)\WINDOWS KITS\8.1\LIB\WINV6.3\UM\X86\ODBC32.LIB
C:\PROGRAM FILES (X86)\WINDOWS KITS\8.1\LIB\WINV6.3\UM\X86\ODBCCP32.LIB
C:\PROGRAM FILES (X86)\WINDOWS KITS\8.1\LIB\WINV6.3\UM\X86\KERNEL32.LIB
C:\PROGRAM FILES (X86)\WINDOWS KITS\8.1\LIB\WINV6.3\UM\X86\USER32.LIB
C:\PROGRAM FILES (X86)\WINDOWS KITS\8.1\LIB\WINV6.3\UM\X86\GDI32.LIB
C:\PROGRAM FILES (X86)\WINDOWS KITS\8.1\LIB\WINV6.3\UM\X86\WINSPOOL.LIB
C:\PROGRAM FILES (X86)\WINDOWS KITS\8.1\LIB\WINV6.3\UM\X86\COMDLG32.LIB
C:\PROGRAM FILES (X86)\WINDOWS KITS\8.1\LIB\WINV6.3\UM\X86\ADVAPI32.LIB
C:\PROGRAM FILES (X86)\WINDOWS KITS\8.1\LIB\WINV6.3\UM\X86\SHELL32.LIB
C:\PROGRAM FILES (X86)\WINDOWS KITS\8.1\LIB\WINV6.3\UM\X86\OLE32.LIB
C:\PROGRAM FILES (X86)\WINDOWS KITS\8.1\LIB\WINV6.3\UM\X86\OLEAUT32.LIB
C:\PROGRAM FILES (X86)\WINDOWS KITS\8.1\LIB\WINV6.3\UM\X86\UUID.LIB
D:\PROGRAMMING\C++\ENGINE\TEST\DEBUG\RESOURCE.RES
D:\PROGRAMMING\C++\ENGINE\TEST\DEBUG\CAMERASTATE.OBJ
D:\PROGRAMMING\C++\ENGINE\TEST\DEBUG\FONTSTATE.OBJ
D:\PROGRAMMING\C++\ENGINE\TEST\DEBUG\MAIN.OBJ
D:\PROGRAMMING\C++\ENGINE\TEST\DEBUG\MAINSTATE.OBJ
D:\PROGRAMMING\C++\ENGINE\TEST\DEBUG\MESHSTATE.OBJ
D:\PROGRAMMING\C++\ENGINE\TEST\DEBUG\SCENESTATE.OBJ
D:\PROGRAMMING\C++\ENGINE\DEBUG\ENGINE.LIB
C:\WINDOWS\SYSTEM32\TZRES.DLL
C:\PROGRAM FILES (X86)\MICROSOFT VISUAL STUDIO 14.0\VC\LIB\MSVCPRTD.LIB
C:\PROGRAM FILES (X86)\MICROSOFT VISUAL STUDIO 14.0\VC\LIB\MSVCRTD.LIB
C:\PROGRAM FILES (X86)\MICROSOFT VISUAL STUDIO 14.0\VC\LIB\OLDNAMES.LIB
C:\PROGRAM FILES (X86)\MICROSOFT VISUAL STUDIO 14.0\VC\LIB\VCRUNTIMED.LIB
C:\PROGRAM FILES (X86)\WINDOWS KITS\10\LIB\10.0.10240.0\UCRT\X86\UCRTD.LIB
