^C:\PROGRAMMING\MICROSOFT VISUAL STUDIO 2015\ENGINE\SOURCE_POLYGON\GAMEPROJECT01\BOUNDINGVOLUME.CPP
/c /ZI /nologo /W3 /WX- /Od /Oy- /D WIN32 /D _DEBUG /D _LIB /D _MBCS /Gm /EHsc /RTC1 /MDd /GS /fp:precise /Zc:wchar_t /Zc:forScope /Zc:inline /Fo"DEBUG\\" /Fd"DEBUG\ENGINE.PDB" /Gd /TP /analyze- C:\PROGRAMMING\MICROSOFT VISUAL STUDIO 2015\ENGINE\SOURCE_POLYGON\GAMEPROJECT01\BOUNDINGVOLUME.CPP
^C:\PROGRAMMING\MICROSOFT VISUAL STUDIO 2015\ENGINE\SOURCE_POLYGON\GAMEPROJECT01\DEVICEENUMERATION.CPP
/c /ZI /nologo /W3 /WX- /Od /Oy- /D WIN32 /D _DEBUG /D _LIB /D _MBCS /Gm /EHsc /RTC1 /MDd /GS /fp:precise /Zc:wchar_t /Zc:forScope /Zc:inline /Fo"DEBUG\\" /Fd"DEBUG\ENGINE.PDB" /Gd /TP /analyze- C:\PROGRAMMING\MICROSOFT VISUAL STUDIO 2015\ENGINE\SOURCE_POLYGON\GAMEPROJECT01\DEVICEENUMERATION.CPP
^C:\PROGRAMMING\MICROSOFT VISUAL STUDIO 2015\ENGINE\SOURCE_POLYGON\GAMEPROJECT01\ENGINE.CPP
/c /ZI /nologo /W3 /WX- /Od /Oy- /D WIN32 /D _DEBUG /D _LIB /D _MBCS /Gm /EHsc /RTC1 /MDd /GS /fp:precise /Zc:wchar_t /Zc:forScope /Zc:inline /Fo"DEBUG\\" /Fd"DEBUG\ENGINE.PDB" /Gd /TP /analyze- C:\PROGRAMMING\MICROSOFT VISUAL STUDIO 2015\ENGINE\SOURCE_POLYGON\GAMEPROJECT01\ENGINE.CPP
^C:\PROGRAMMING\MICROSOFT VISUAL STUDIO 2015\ENGINE\SOURCE_POLYGON\GAMEPROJECT01\FONT.CPP
/c /ZI /nologo /W3 /WX- /Od /Oy- /D WIN32 /D _DEBUG /D _LIB /D _MBCS /Gm /EHsc /RTC1 /MDd /GS /fp:precise /Zc:wchar_t /Zc:forScope /Zc:inline /Fo"DEBUG\\" /Fd"DEBUG\ENGINE.PDB" /Gd /TP /analyze- C:\PROGRAMMING\MICROSOFT VISUAL STUDIO 2015\ENGINE\SOURCE_POLYGON\GAMEPROJECT01\FONT.CPP
^C:\PROGRAMMING\MICROSOFT VISUAL STUDIO 2015\ENGINE\SOURCE_POLYGON\GAMEPROJECT01\INPUT.CPP
/c /ZI /nologo /W3 /WX- /Od /Oy- /D WIN32 /D _DEBUG /D _LIB /D _MBCS /Gm /EHsc /RTC1 /MDd /GS /fp:precise /Zc:wchar_t /Zc:forScope /Zc:inline /Fo"DEBUG\\" /Fd"DEBUG\ENGINE.PDB" /Gd /TP /analyze- C:\PROGRAMMING\MICROSOFT VISUAL STUDIO 2015\ENGINE\SOURCE_POLYGON\GAMEPROJECT01\INPUT.CPP
^C:\PROGRAMMING\MICROSOFT VISUAL STUDIO 2015\ENGINE\SOURCE_POLYGON\GAMEPROJECT01\MATERIAL.CPP
/c /ZI /nologo /W3 /WX- /Od /Oy- /D WIN32 /D _DEBUG /D _LIB /D _MBCS /Gm /EHsc /RTC1 /MDd /GS /fp:precise /Zc:wchar_t /Zc:forScope /Zc:inline /Fo"DEBUG\\" /Fd"DEBUG\ENGINE.PDB" /Gd /TP /analyze- C:\PROGRAMMING\MICROSOFT VISUAL STUDIO 2015\ENGINE\SOURCE_POLYGON\GAMEPROJECT01\MATERIAL.CPP
^C:\PROGRAMMING\MICROSOFT VISUAL STUDIO 2015\ENGINE\SOURCE_POLYGON\GAMEPROJECT01\MESH.CPP
/c /ZI /nologo /W3 /WX- /Od /Oy- /D WIN32 /D _DEBUG /D _LIB /D _MBCS /Gm /EHsc /RTC1 /MDd /GS /fp:precise /Zc:wchar_t /Zc:forScope /Zc:inline /Fo"DEBUG\\" /Fd"DEBUG\ENGINE.PDB" /Gd /TP /analyze- C:\PROGRAMMING\MICROSOFT VISUAL STUDIO 2015\ENGINE\SOURCE_POLYGON\GAMEPROJECT01\MESH.CPP
^C:\PROGRAMMING\MICROSOFT VISUAL STUDIO 2015\ENGINE\SOURCE_POLYGON\GAMEPROJECT01\NETWORK.CPP
/c /ZI /nologo /W3 /WX- /Od /Oy- /D WIN32 /D _DEBUG /D _LIB /D _MBCS /Gm /EHsc /RTC1 /MDd /GS /fp:precise /Zc:wchar_t /Zc:forScope /Zc:inline /Fo"DEBUG\\" /Fd"DEBUG\ENGINE.PDB" /Gd /TP /analyze- C:\PROGRAMMING\MICROSOFT VISUAL STUDIO 2015\ENGINE\SOURCE_POLYGON\GAMEPROJECT01\NETWORK.CPP
^C:\PROGRAMMING\MICROSOFT VISUAL STUDIO 2015\ENGINE\SOURCE_POLYGON\GAMEPROJECT01\RENDERCACHE.CPP
/c /ZI /nologo /W3 /WX- /Od /Oy- /D WIN32 /D _DEBUG /D _LIB /D _MBCS /Gm /EHsc /RTC1 /MDd /GS /fp:precise /Zc:wchar_t /Zc:forScope /Zc:inline /Fo"DEBUG\\" /Fd"DEBUG\ENGINE.PDB" /Gd /TP /analyze- C:\PROGRAMMING\MICROSOFT VISUAL STUDIO 2015\ENGINE\SOURCE_POLYGON\GAMEPROJECT01\RENDERCACHE.CPP
^C:\PROGRAMMING\MICROSOFT VISUAL STUDIO 2015\ENGINE\SOURCE_POLYGON\GAMEPROJECT01\SCRIPTING.CPP
/c /ZI /nologo /W3 /WX- /Od /Oy- /D WIN32 /D _DEBUG /D _LIB /D _MBCS /Gm /EHsc /RTC1 /MDd /GS /fp:precise /Zc:wchar_t /Zc:forScope /Zc:inline /Fo"DEBUG\\" /Fd"DEBUG\ENGINE.PDB" /Gd /TP /analyze- C:\PROGRAMMING\MICROSOFT VISUAL STUDIO 2015\ENGINE\SOURCE_POLYGON\GAMEPROJECT01\SCRIPTING.CPP
^C:\PROGRAMMING\MICROSOFT VISUAL STUDIO 2015\ENGINE\SOURCE_POLYGON\GAMEPROJECT01\SOUNDSYSTEM.CPP
/c /ZI /nologo /W3 /WX- /Od /Oy- /D WIN32 /D _DEBUG /D _LIB /D _MBCS /Gm /EHsc /RTC1 /MDd /GS /fp:precise /Zc:wchar_t /Zc:forScope /Zc:inline /Fo"DEBUG\\" /Fd"DEBUG\ENGINE.PDB" /Gd /TP /analyze- C:\PROGRAMMING\MICROSOFT VISUAL STUDIO 2015\ENGINE\SOURCE_POLYGON\GAMEPROJECT01\SOUNDSYSTEM.CPP
^C:\PROGRAMMING\MICROSOFT VISUAL STUDIO 2015\ENGINE\SOURCE_POLYGON\GAMEPROJECT01\STATE.CPP
/c /ZI /nologo /W3 /WX- /Od /Oy- /D WIN32 /D _DEBUG /D _LIB /D _MBCS /Gm /EHsc /RTC1 /MDd /GS /fp:precise /Zc:wchar_t /Zc:forScope /Zc:inline /Fo"DEBUG\\" /Fd"DEBUG\ENGINE.PDB" /Gd /TP /analyze- C:\PROGRAMMING\MICROSOFT VISUAL STUDIO 2015\ENGINE\SOURCE_POLYGON\GAMEPROJECT01\STATE.CPP
