^C:\USERS\USER1\DOCUMENTS\VISUAL STUDIO 2010\PROJECTS\GAMEPROJECT01\GAMEPROJECT01\RESOURCE.RC
/l"0x0409" /nologo /fo"Debug\Resource.res" ..\GameProject01\Resource.rc /l"0x0409" /nologo /fo"Debug\Resource.res" C:\USERS\USER1\DOCUMENTS\VISUAL STUDIO 2010\PROJECTS\GAMEPROJECT01\GAMEPROJECT01\RESOURCE.RC
^C:\USERS\USER1\DOCUMENTS\VISUAL STUDIO 2010\PROJECTS\GAMEPROJECT01\TEST\DEBUG\TEST_MANIFEST.RC
/nologo /fo"Debug\Test.exe.embed.manifest.res" Debug\Test_manifest.rc /nologo /fo"Debug\Test.exe.embed.manifest.res" C:\USERS\USER1\DOCUMENTS\VISUAL STUDIO 2010\PROJECTS\GAMEPROJECT01\TEST\DEBUG\TEST_MANIFEST.RC
