^C:\USERS\USER1\DOCUMENTS\VISUAL STUDIO 2010\PROJECTS\GAMEPROJECT01\GAMEPROJECT01\RESOURCE.RC
C:\USERS\USER1\DOCUMENTS\VISUAL STUDIO 2010\PROJECTS\GAMEPROJECT01\TEST\DEBUG\RESOURCE.RES
^C:\USERS\USER1\DOCUMENTS\VISUAL STUDIO 2010\PROJECTS\GAMEPROJECT01\TEST\DEBUG\TEST_MANIFEST.RC
C:\USERS\USER1\DOCUMENTS\VISUAL STUDIO 2010\PROJECTS\GAMEPROJECT01\TEST\DEBUG\TEST.EXE.EMBED.MANIFEST.RES
