^C:\USERS\USER1\DOCUMENTS\VISUAL STUDIO 2010\PROJECTS\GAMEPROJECT01\DEBUG\ENGINE.LIB|C:\USERS\USER1\DOCUMENTS\VISUAL STUDIO 2010\PROJECTS\GAMEPROJECT01\TEST\DEBUG\MAIN.OBJ|C:\USERS\USER1\DOCUMENTS\VISUAL STUDIO 2010\PROJECTS\GAMEPROJECT01\TEST\DEBUG\RESOURCE.RES|C:\USERS\USER1\DOCUMENTS\VISUAL STUDIO 2010\PROJECTS\GAMEPROJECT01\TEST\DEBUG\TEST.EXE.EMBED.MANIFEST.RES
/ERRORREPORT:PROMPT /OUT:"C:\Users\User1\documents\visual studio 2010\Projects\GameProject01\Debug\Test.exe" /INCREMENTAL /NOLOGO d3dx9d.lib d3d9.lib dinput8.lib dxguid.lib winmm.lib odbc32.lib odbccp32.lib kernel32.lib user32.lib gdi32.lib winspool.lib comdlg32.lib advapi32.lib shell32.lib ole32.lib oleaut32.lib uuid.lib odbc32.lib odbccp32.lib /MANIFEST /ManifestFile:"Debug\Test.exe.intermediate.manifest" /MANIFESTUAC:"level='asInvoker' uiAccess='false'" /DEBUG /PDB:"C:\Users\User1\documents\visual studio 2010\Projects\GameProject01\Debug\Test.pdb" /SUBSYSTEM:WINDOWS /TLBID:1 /DYNAMICBASE /NXCOMPAT /IMPLIB:"C:\Users\User1\documents\visual studio 2010\Projects\GameProject01\Debug\Test.lib" /MACHINE:X86 Debug\Resource.res
Debug\Test.exe.embed.manifest.res
Debug\Main.obj
..\Debug\Engine.lib
