^C:\PROGRAMMING\MICROSOFT VISUAL STUDIO 2015\ENGINE\SOURCE_FONT\GAMEPROJECT01\DEVICEENUMERATION.CPP|C:\PROGRAMMING\MICROSOFT VISUAL STUDIO 2015\ENGINE\SOURCE_FONT\GAMEPROJECT01\ENGINE.CPP|C:\PROGRAMMING\MICROSOFT VISUAL STUDIO 2015\ENGINE\SOURCE_FONT\GAMEPROJECT01\FONT.CPP|C:\PROGRAMMING\MICROSOFT VISUAL STUDIO 2015\ENGINE\SOURCE_FONT\GAMEPROJECT01\INPUT.CPP|C:\PROGRAMMING\MICROSOFT VISUAL STUDIO 2015\ENGINE\SOURCE_FONT\GAMEPROJECT01\SCRIPTING.CPP|C:\PROGRAMMING\MICROSOFT VISUAL STUDIO 2015\ENGINE\SOURCE_FONT\GAMEPROJECT01\STATE.CPP
C:\PROGRAMMING\MICROSOFT VISUAL STUDIO 2015\ENGINE\SOURCE_FONT\GAMEPROJECT01\DEBUG\ENGINE.PDB
C:\PROGRAMMING\MICROSOFT VISUAL STUDIO 2015\ENGINE\SOURCE_FONT\GAMEPROJECT01\DEBUG\ENGINE.IDB
C:\PROGRAMMING\MICROSOFT VISUAL STUDIO 2015\ENGINE\SOURCE_FONT\GAMEPROJECT01\DEBUG\DEVICEENUMERATION.OBJ
C:\PROGRAMMING\MICROSOFT VISUAL STUDIO 2015\ENGINE\SOURCE_FONT\GAMEPROJECT01\DEBUG\ENGINE.OBJ
C:\PROGRAMMING\MICROSOFT VISUAL STUDIO 2015\ENGINE\SOURCE_FONT\GAMEPROJECT01\DEBUG\FONT.OBJ
C:\PROGRAMMING\MICROSOFT VISUAL STUDIO 2015\ENGINE\SOURCE_FONT\GAMEPROJECT01\DEBUG\INPUT.OBJ
C:\PROGRAMMING\MICROSOFT VISUAL STUDIO 2015\ENGINE\SOURCE_FONT\GAMEPROJECT01\DEBUG\SCRIPTING.OBJ
C:\PROGRAMMING\MICROSOFT VISUAL STUDIO 2015\ENGINE\SOURCE_FONT\GAMEPROJECT01\DEBUG\STATE.OBJ
^C:\PROGRAMMING\MICROSOFT VISUAL STUDIO 2015\ENGINE\SOURCE_FONT\GAMEPROJECT01\DEVICEENUMERATION.CPP
C:\PROGRAMMING\MICROSOFT VISUAL STUDIO 2015\ENGINE\SOURCE_FONT\GAMEPROJECT01\DEBUG\ENGINE.PDB
^C:\PROGRAMMING\MICROSOFT VISUAL STUDIO 2015\ENGINE\SOURCE_FONT\GAMEPROJECT01\ENGINE.CPP
C:\PROGRAMMING\MICROSOFT VISUAL STUDIO 2015\ENGINE\SOURCE_FONT\GAMEPROJECT01\DEBUG\ENGINE.PDB
C:\PROGRAMMING\MICROSOFT VISUAL STUDIO 2015\ENGINE\SOURCE_FONT\GAMEPROJECT01\DEBUG\ENGINE.IDB
C:\PROGRAMMING\MICROSOFT VISUAL STUDIO 2015\ENGINE\SOURCE_FONT\GAMEPROJECT01\DEBUG\ENGINE.OBJ
^C:\PROGRAMMING\MICROSOFT VISUAL STUDIO 2015\ENGINE\SOURCE_FONT\GAMEPROJECT01\FONT.CPP
C:\PROGRAMMING\MICROSOFT VISUAL STUDIO 2015\ENGINE\SOURCE_FONT\GAMEPROJECT01\DEBUG\ENGINE.PDB
^C:\PROGRAMMING\MICROSOFT VISUAL STUDIO 2015\ENGINE\SOURCE_FONT\GAMEPROJECT01\INPUT.CPP
C:\PROGRAMMING\MICROSOFT VISUAL STUDIO 2015\ENGINE\SOURCE_FONT\GAMEPROJECT01\DEBUG\ENGINE.PDB
^C:\PROGRAMMING\MICROSOFT VISUAL STUDIO 2015\ENGINE\SOURCE_FONT\GAMEPROJECT01\SCRIPTING.CPP
C:\PROGRAMMING\MICROSOFT VISUAL STUDIO 2015\ENGINE\SOURCE_FONT\GAMEPROJECT01\DEBUG\ENGINE.PDB
^C:\PROGRAMMING\MICROSOFT VISUAL STUDIO 2015\ENGINE\SOURCE_FONT\GAMEPROJECT01\STATE.CPP
C:\PROGRAMMING\MICROSOFT VISUAL STUDIO 2015\ENGINE\SOURCE_FONT\GAMEPROJECT01\DEBUG\ENGINE.PDB
