^C:\PROGRAMMING\MICROSOFT VISUAL STUDIO 2015\ENGINE\SOURCE_FONT\TEST\MAIN.CPP
C:\PROGRAMMING\MICROSOFT VISUAL STUDIO 2015\ENGINE\SOURCE_FONT\TEST\DEBUG\VC140.PDB
C:\PROGRAMMING\MICROSOFT VISUAL STUDIO 2015\ENGINE\SOURCE_FONT\TEST\DEBUG\VC140.IDB
C:\PROGRAMMING\MICROSOFT VISUAL STUDIO 2015\ENGINE\SOURCE_FONT\TEST\DEBUG\MAIN.OBJ
